general_SPI/tb/SPI_loopback_tb.vcd
$date
	Mon Jun 24 11:32:07 2019
$end
$version
	Icarus Verilog
$end
$timescale
	1ps
$end
$scope module SPI_loopback_tb $end
$var wire 1 ! data_valid_pos $end
$var wire 1 " finish_m $end
$var wire 1 # data_valid_s $end
$var wire 8 $ data_s_out [7:0] $end
$var wire 8 % data_m_out [7:0] $end
$var reg 1 & clk $end
$var reg 8 ' data_m_in [7:0] $end
$var reg 8 ( data_s_in [7:0] $end
$var reg 1 ) data_valid_1 $end
$var reg 1 * data_valid_2 $end
$var reg 1 + rst_n $end
$var reg 1 , start_m $end
$scope module u_SPI_loopback $end
$var wire 1 & clk $end
$var wire 8 - data_m_in [7:0] $end
$var wire 8 . data_s_in [7:0] $end
$var wire 1 + rst_n $end
$var wire 1 , start_m $end
$var wire 1 / sclk $end
$var wire 1 0 mosi $end
$var wire 1 1 miso $end
$var wire 1 " finish_m $end
$var wire 1 # data_valid_s $end
$var wire 8 2 data_s_out [7:0] $end
$var wire 8 3 data_m_out [7:0] $end
$var wire 1 4 cs_n $end
$scope module u_SPI_Slave $end
$var wire 1 & clk $end
$var wire 1 5 cs_n_negedge $end
$var wire 8 6 data_in [7:0] $end
$var wire 1 + rst_n $end
$var wire 1 7 sclk_negedge $end
$var wire 1 8 sclk_posedge $end
$var wire 1 9 shift_en $end
$var wire 1 / sclk $end
$var wire 1 : sampl_en $end
$var wire 1 0 mosi $end
$var wire 1 1 miso $end
$var wire 1 # data_valid $end
$var wire 1 4 cs_n $end
$var reg 1 ; cs_n_a $end
$var reg 1 < cs_n_b $end
$var reg 8 = data_out [7:0] $end
$var reg 8 > data_reg [7:0] $end
$var reg 4 ? sampl_num [3:0] $end
$var reg 1 @ sclk_a $end
$var reg 1 A sclk_b $end
$scope function log2 $end
$var integer 32 B v [31:0] $end
$upscope $end
$scope begin genblk1 $end
$upscope $end
$scope begin genblk2 $end
$upscope $end
$upscope $end
$scope module u_spi_master $end
$var wire 1 & clk $end
$var wire 8 C data_in [7:0] $end
$var wire 1 1 miso $end
$var wire 1 + rst_n $end
$var wire 1 D sclk_negedge $end
$var wire 1 E sclk_posedge $end
$var wire 1 , start $end
$var wire 1 F shift_en $end
$var wire 1 G sampl_en $end
$var wire 1 0 mosi $end
$var reg 4 H clk_cnt [3:0] $end
$var reg 1 I clk_cnt_en $end
$var reg 1 4 cs_n $end
$var reg 3 J cstate [2:0] $end
$var reg 8 K data_out [7:0] $end
$var reg 8 L data_reg [7:0] $end
$var reg 1 " finish $end
$var reg 3 M nstate [2:0] $end
$var reg 1 / sclk $end
$var reg 1 N sclk_a $end
$var reg 1 O sclk_b $end
$var reg 4 P shift_cnt [3:0] $end
$scope function log2 $end
$var integer 32 Q v [31:0] $end
$upscope $end
$scope begin genblk1 $end
$upscope $end
$scope begin genblk2 $end
$upscope $end
$upscope $end
$upscope $end
$scope task data_m_in_generate $end
$upscope $end
$scope task data_s_in_generate $end
$upscope $end
$scope task start_change $end
$upscope $end
$upscope $end
$enddefinitions $end
#0
$dumpvars
bx Q
b0 P
0O
0N
b0 M
b0 L
b0 K
b0 J
0I
b0 H
0G
0F
0E
0D
b0 C
bx B
0A
0@
b0 ?
b0 >
b0 =
1<
1;
0:
09
08
07
b0 6
05
14
b0 3
b0 2
01
00
0/
b0 .
b0 -
0,
0+
x*
x)
b0 (
b0 '
1&
b0 %
b0 $
0#
0"
x!
$end
#10000
0&
#20000
0!
0)
1&
#22000
b100100 (
b100100 .
b100100 6
b10100101 '
b10100101 -
b10100101 C
1+
#30000
0&
#40000
0*
1&
#42000
b1 M
1,
#50000
0&
#60000
10
b10 M
04
b10100101 L
1I
b1 J
1&
#62000
0,
#70000
0&
#80000
15
b1 H
b10 J
0;
1&
#90000
0&
#100000
05
b100100 >
0<
b10 H
1&
#110000
0&
#120000
b11 H
1&
#130000
0&
#140000
b100 H
1&
#150000
0&
#160000
b101 H
1&
#170000
0&
#180000
b110 H
1&
#190000
0&
#200000
b111 H
1&
#210000
0&
#220000
b1000 H
1&
#230000
0&
#240000
b1001 H
1&
#250000
0&
#260000
1/
b0 H
1&
#270000
0&
#280000
1G
1E
1:
18
b1 H
1N
1@
1&
#290000
0&
#300000
0:
08
0G
0E
b1 ?
b1 $
b1 2
b1 =
1A
1O
b10 H
1&
#310000
0&
#320000
b11 H
1&
#330000
0&
#340000
b100 H
1&
#350000
0&
#360000
b101 H
1&
#370000
0&
#380000
b110 H
1&
#390000
0&
#400000
b111 H
1&
#410000
0&
#420000
b1000 H
1&
#430000
0&
#440000
b1001 H
1&
#450000
0&
#460000
0/
b0 H
1&
#470000
0&
#480000
1F
1D
19
17
b1 H
0N
0@
1&
#490000
0&
#500000
09
07
00
0F
0D
b1001000 >
0A
b1001010 L
b1 P
0O
b10 H
1&
#510000
0&
#520000
b11 H
1&
#530000
0&
#540000
b100 H
1&
#550000
0&
#560000
b101 H
1&
#570000
0&
#580000
b110 H
1&
#590000
0&
#600000
b111 H
1&
#610000
0&
#620000
b1000 H
1&
#630000
0&
#640000
b1001 H
1&
#650000
0&
#660000
1/
b0 H
1&
#670000
0&
#680000
1G
1E
1:
18
b1 H
1N
1@
1&
#690000
0&
#700000
0:
08
0G
0E
b10 ?
b10 $
b10 2
b10 =
1A
1O
b10 H
1&
#710000
0&
#720000
b11 H
1&
#730000
0&
#740000
b100 H
1&
#750000
0&
#760000
b101 H
1&
#770000
0&
#780000
b110 H
1&
#790000
0&
#800000
b111 H
1&
#810000
0&
#820000
b1000 H
1&
#830000
0&
#840000
b1001 H
1&
#850000
0&
#860000
0/
b0 H
1&
#870000
0&
#880000
1F
1D
19
17
b1 H
0N
0@
1&
#890000
0&
#900000
11
09
07
10
0F
0D
b10010000 >
0A
b10010100 L
b10 P
0O
b10 H
1&
#910000
0&
#920000
b11 H
1&
#930000
0&
#940000
b100 H
1&
#950000
0&
#960000
b101 H
1&
#970000
0&
#980000
b110 H
1&
#990000
0&
#1000000
b111 H
1&
#1010000
0&
#1020000
b1000 H
1&
#1030000
0&
#1040000
b1001 H
1&
#1050000
0&
#1060000
1/
b0 H
1&
#1070000
0&
#1080000
1G
1E
1:
18
b1 H
1N
1@
1&
#1090000
0&
#1100000
0:
08
0G
0E
b11 ?
b101 $
b101 2
b101 =
1A
b1 %
b1 3
b1 K
1O
b10 H
1&
#1110000
0&
#1120000
b11 H
1&
#1130000
0&
#1140000
b100 H
1&
#1150000
0&
#1160000
b101 H
1&
#1170000
0&
#1180000
b110 H
1&
#1190000
0&
#1200000
b111 H
1&
#1210000
0&
#1220000
b1000 H
1&
#1230000
0&
#1240000
b1001 H
1&
#1250000
0&
#1260000
0/
b0 H
1&
#1270000
0&
#1280000
1F
1D
19
17
b1 H
0N
0@
1&
#1290000
0&
#1300000
01
09
07
00
0F
0D
b100000 >
0A
b101000 L
b11 P
0O
b10 H
1&
#1310000
0&
#1320000
b11 H
1&
#1330000
0&
#1340000
b100 H
1&
#1350000
0&
#1360000
b101 H
1&
#1370000
0&
#1380000
b110 H
1&
#1390000
0&
#1400000
b111 H
1&
#1410000
0&
#1420000
b1000 H
1&
#1430000
0&
#1440000
b1001 H
1&
#1450000
0&
#1460000
1/
b0 H
1&
#1470000
0&
#1480000
1G
1E
1:
18
b1 H
1N
1@
1&
#1490000
0&
#1500000
0:
08
0G
0E
b100 ?
b1010 $
b1010 2
b1010 =
1A
b10 %
b10 3
b10 K
1O
b10 H
1&
#1510000
0&
#1520000
b11 H
1&
#1530000
0&
#1540000
b100 H
1&
#1550000
0&
#1560000
b101 H
1&
#1570000
0&
#1580000
b110 H
1&
#1590000
0&
#1600000
b111 H
1&
#1610000
0&
#1620000
b1000 H
1&
#1630000
0&
#1640000
b1001 H
1&
#1650000
0&
#1660000
0/
b0 H
1&
#1670000
0&
#1680000
1F
1D
19
17
b1 H
0N
0@
1&
#1690000
0&
#1700000
09
07
0F
0D
b1000000 >
0A
b1010000 L
b100 P
0O
b10 H
1&
#1710000
0&
#1720000
b11 H
1&
#1730000
0&
#1740000
b100 H
1&
#1750000
0&
#1760000
b101 H
1&
#1770000
0&
#1780000
b110 H
1&
#1790000
0&
#1800000
b111 H
1&
#1810000
0&
#1820000
b1000 H
1&
#1830000
0&
#1840000
b1001 H
1&
#1850000
0&
#1860000
1/
b0 H
1&
#1870000
0&
#1880000
1G
1E
1:
18
b1 H
1N
1@
1&
#1890000
0&
#1900000
0:
08
0G
0E
b101 ?
b10100 $
b10100 2
b10100 =
1A
b100 %
b100 3
b100 K
1O
b10 H
1&
#1910000
0&
#1920000
b11 H
1&
#1930000
0&
#1940000
b100 H
1&
#1950000
0&
#1960000
b101 H
1&
#1970000
0&
#1980000
b110 H
1&
#1990000
0&
#2000000
b111 H
1&
#2010000
0&
#2020000
b1000 H
1&
#2030000
0&
#2040000
b1001 H
1&
#2050000
0&
#2060000
0/
b0 H
1&
#2070000
0&
#2080000
1F
1D
19
17
b1 H
0N
0@
1&
#2090000
0&
#2100000
11
09
07
10
0F
0D
b10000000 >
0A
b10100000 L
b101 P
0O
b10 H
1&
#2110000
0&
#2120000
b11 H
1&
#2130000
0&
#2140000
b100 H
1&
#2150000
0&
#2160000
b101 H
1&
#2170000
0&
#2180000
b110 H
1&
#2190000
0&
#2200000
b111 H
1&
#2210000
0&
#2220000
b1000 H
1&
#2230000
0&
#2240000
b1001 H
1&
#2250000
0&
#2260000
1/
b0 H
1&
#2270000
0&
#2280000
1G
1E
1:
18
b1 H
1N
1@
1&
#2290000
0&
#2300000
0:
08
0G
0E
b110 ?
b101001 $
b101001 2
b101001 =
1A
b1001 %
b1001 3
b1001 K
1O
b10 H
1&
#2310000
0&
#2320000
b11 H
1&
#2330000
0&
#2340000
b100 H
1&
#2350000
0&
#2360000
b101 H
1&
#2370000
0&
#2380000
b110 H
1&
#2390000
0&
#2400000
b111 H
1&
#2410000
0&
#2420000
b1000 H
1&
#2430000
0&
#2440000
b1001 H
1&
#2450000
0&
#2460000
0/
b0 H
1&
#2470000
0&
#2480000
1F
1D
19
17
b1 H
0N
0@
1&
#2490000
0&
#2500000
01
09
07
00
0F
0D
b0 >
0A
b1000000 L
b110 P
0O
b10 H
1&
#2510000
0&
#2520000
b11 H
1&
#2530000
0&
#2540000
b100 H
1&
#2550000
0&
#2560000
b101 H
1&
#2570000
0&
#2580000
b110 H
1&
#2590000
0&
#2600000
b111 H
1&
#2610000
0&
#2620000
b1000 H
1&
#2630000
0&
#2640000
b1001 H
1&
#2650000
0&
#2660000
1/
b0 H
1&
#2670000
0&
#2680000
1G
1E
1:
18
b1 H
1N
1@
1&
#2690000
0&
#2700000
0:
08
0G
0E
b111 ?
b1010010 $
b1010010 2
b1010010 =
1A
b10010 %
b10010 3
b10010 K
1O
b10 H
1&
#2710000
0&
#2720000
b11 H
1&
#2730000
0&
#2740000
b100 H
1&
#2750000
0&
#2760000
b101 H
1&
#2770000
0&
#2780000
b110 H
1&
#2790000
0&
#2800000
b111 H
1&
#2810000
0&
#2820000
b1000 H
1&
#2830000
0&
#2840000
b1001 H
1&
#2850000
0&
#2860000
0/
b0 H
1&
#2870000
0&
#2880000
1F
1D
19
17
b1 H
0N
0@
1&
#2890000
0&
#2900000
09
07
10
0F
0D
0A
b10000000 L
b111 P
0O
b10 H
1&
#2910000
0&
#2920000
b11 H
1&
#2930000
0&
#2940000
b100 H
1&
#2950000
0&
#2960000
b101 H
1&
#2970000
0&
#2980000
b110 H
1&
#2990000
0&
#3000000
b111 H
1&
#3010000
0&
#3020000
b1000 H
1&
#3030000
0&
#3040000
b1001 H
1&
#3050000
0&
#3060000
1/
b0 H
1&
#3070000
0&
#3080000
1G
1E
1:
18
b1 H
1N
1@
1&
#3090000
0&
#3100000
0:
08
0G
0E
1#
b1000 ?
b10100101 $
b10100101 2
b10100101 =
1A
b100100 %
b100100 3
b100100 K
1O
b10 H
1&
#3110000
0&
#3120000
1!
b11 H
1)
1&
#3130000
0&
#3140000
0!
1*
b100 H
1&
#3150000
0&
#3160000
b101 H
1&
#3170000
0&
#3180000
b110 H
1&
#3190000
0&
#3200000
b111 H
1&
#3210000
0&
#3220000
b1000 H
1&
#3230000
0&
#3240000
b1001 H
1&
#3250000
0&
#3260000
0/
b0 H
1&
#3270000
0&
#3280000
1F
1D
19
17
b1 H
0N
0@
1&
#3290000
0&
#3300000
09
07
00
b100 M
0F
0D
0A
b0 L
b1000 P
0O
b10 H
1&
#3310000
0&
#3320000
b10011010 '
b10011010 -
b10011010 C
b10000001 (
b10000001 .
b10000001 6
b0 M
b11 H
b100 J
1"
14
0I
1&
#3330000
0&
#3340000
0#
b0 ?
1;
0"
b0 P
b0 J
b0 H
1&
#3350000
0&
#3360000
10
b1 J
04
b10011010 L
1I
1<
0)
b10 M
1&
1,
#3370000
0&
#3380000
15
0*
0;
b10 J
b1 H
1&
0,
#3390000
0&
#3400000
11
05
b10 H
0<
b10000001 >
1&
#3410000
0&
#3420000
b11 H
1&
#3430000
0&
#3440000
b100 H
1&
#3450000
0&
#3460000
b101 H
1&
#3470000
0&
#3480000
b110 H
1&
#3490000
0&
#3500000
b111 H
1&
#3510000
0&
#3520000
b1000 H
1&
#3530000
0&
#3540000
b1001 H
1&
#3550000
0&
#3560000
b0 H
1/
1&
#3570000
0&
#3580000
1:
18
1G
1E
1@
1N
b1 H
1&
#3590000
0&
#3600000
0G
0E
0:
08
b10 H
1O
b1001001 %
b1001001 3
b1001001 K
1A
b1001011 $
b1001011 2
b1001011 =
b1 ?
1&
#3610000
0&
#3620000
b11 H
1&
#3630000
0&
#3640000
b100 H
1&
#3650000
0&
#3660000
b101 H
1&
#3670000
0&
#3680000
b110 H
1&
#3690000
0&
#3700000
b111 H
1&
#3710000
0&
#3720000
b1000 H
1&
#3730000
0&
#3740000
b1001 H
1&
#3750000
0&
#3760000
b0 H
0/
1&
#3770000
0&
#3780000
19
17
1F
1D
0@
0N
b1 H
1&
#3790000
0&
#3800000
01
0F
0D
00
09
07
b10 H
0O
b110100 L
b1 P
0A
b10 >
1&
#3810000
0&
#3820000
b11 H
1&
#3830000
0&
#3840000
b100 H
1&
#3850000
0&
#3860000
b101 H
1&
#3870000
0&
#3880000
b110 H
1&
#3890000
0&
#3900000
b111 H
1&
#3910000
0&
#3920000
b1000 H
1&
#3930000
0&
#3940000
b1001 H
1&
#3950000
0&
#3960000
b0 H
1/
1&
#3970000
0&
#3980000
1:
18
1G
1E
1@
1N
b1 H
1&
#3990000
0&
#4000000
0G
0E
0:
08
b10 H
1O
b10010010 %
b10010010 3
b10010010 K
1A
b10010110 $
b10010110 2
b10010110 =
b10 ?
1&
#4010000
0&
#4020000
b11 H
1&
#4030000
0&
#4040000
b100 H
1&
#4050000
0&
#4060000
b101 H
1&
#4070000
0&
#4080000
b110 H
1&
#4090000
0&
#4100000
b111 H
1&
#4110000
0&
#4120000
b1000 H
1&
#4130000
0&
#4140000
b1001 H
1&
#4150000
0&
#4160000
b0 H
0/
1&
#4170000
0&
#4180000
19
17
1F
1D
0@
0N
b1 H
1&
#4190000
0&
#4200000
0F
0D
09
07
b10 H
0O
b1101000 L
b10 P
0A
b100 >
1&
#4210000
0&
#4220000
b11 H
1&
#4230000
0&
#4240000
b100 H
1&
#4250000
0&
#4260000
b101 H
1&
#4270000
0&
#4280000
b110 H
1&
#4290000
0&
#4300000
b111 H
1&
#4310000
0&
#4320000
b1000 H
1&
#4330000
0&
#4340000
b1001 H
1&
#4350000
0&
#4360000
b0 H
1/
1&
#4370000
0&
#4380000
1:
18
1G
1E
1@
1N
b1 H
1&
#4390000
0&
#4400000
0G
0E
0:
08
b10 H
1O
b100100 %
b100100 3
b100100 K
1A
b101100 $
b101100 2
b101100 =
b11 ?
1&
#4410000
0&
#4420000
b11 H
1&
#4430000
0&
#4440000
b100 H
1&
#4450000
0&
#4460000
b101 H
1&
#4470000
0&
#4480000
b110 H
1&
#4490000
0&
#4500000
b111 H
1&
#4510000
0&
#4520000
b1000 H
1&
#4530000
0&
#4540000
b1001 H
1&
#4550000
0&
#4560000
b0 H
0/
1&
#4570000
0&
#4580000
19
17
1F
1D
0@
0N
b1 H
1&
#4590000
0&
#4600000
0F
0D
10
09
07
b10 H
0O
b11010000 L
b11 P
0A
b1000 >
1&
#4610000
0&
#4620000
b11 H
1&
#4630000
0&
#4640000
b100 H
1&
#4650000
0&
#4660000
b101 H
1&
#4670000
0&
#4680000
b110 H
1&
#4690000
0&
#4700000
b111 H
1&
#4710000
0&
#4720000
b1000 H
1&
#4730000
0&
#4740000
b1001 H
1&
#4750000
0&
#4760000
b0 H
1/
1&
#4770000
0&
#4780000
1:
18
1G
1E
1@
1N
b1 H
1&
#4790000
0&
#4800000
0G
0E
0:
08
b10 H
1O
b1001000 %
b1001000 3
b1001000 K
1A
b1011001 $
b1011001 2
b1011001 =
b100 ?
1&
#4810000
0&
#4820000
b11 H
1&
#4830000
0&
#4840000
b100 H
1&
#4850000
0&
#4860000
b101 H
1&
#4870000
0&
#4880000
b110 H
1&
#4890000
0&
#4900000
b111 H
1&
#4910000
0&
#4920000
b1000 H
1&
#4930000
0&
#4940000
b1001 H
1&
#4950000
0&
#4960000
b0 H
0/
1&
#4970000
0&
#4980000
19
17
1F
1D
0@
0N
b1 H
1&
#4990000
0&
#5000000
0F
0D
09
07
b10 H
0O
b10100000 L
b100 P
0A
b10000 >
1&
#5010000
0&
#5020000
b11 H
1&
#5030000
0&
#5040000
b100 H
1&
#5050000
0&
#5060000
b101 H
1&
#5070000
0&
#5080000
b110 H
1&
#5090000
0&
#5100000
b111 H
1&
#5110000
0&
#5120000
b1000 H
1&
#5130000
0&
#5140000
b1001 H
1&
#5150000
0&
#5160000
b0 H
1/
1&
#5170000
0&
#5180000
1:
18
1G
1E
1@
1N
b1 H
1&
#5190000
0&
#5200000
0G
0E
0:
08
b10 H
1O
b10010000 %
b10010000 3
b10010000 K
1A
b10110011 $
b10110011 2
b10110011 =
b101 ?
1&
#5210000
0&
#5220000
b11 H
1&
#5230000
0&
#5240000
b100 H
1&
#5250000
0&
#5260000
b101 H
1&
#5270000
0&
#5280000
b110 H
1&
#5290000
0&
#5300000
b111 H
1&
#5310000
0&
#5320000
b1000 H
1&
#5330000
0&
#5340000
b1001 H
1&
#5350000
0&
#5360000
b0 H
0/
1&
#5370000
0&
#5380000
19
17
1F
1D
0@
0N
b1 H
1&
#5390000
0&
#5400000
0F
0D
00
09
07
b10 H
0O
b1000000 L
b101 P
0A
b100000 >
1&
#5410000
0&
#5420000
b11 H
1&
#5430000
0&
#5440000
b100 H
1&
#5450000
0&
#5460000
b101 H
1&
#5470000
0&
#5480000
b110 H
1&
#5490000
0&
#5500000
b111 H
1&
#5510000
0&
#5520000
b1000 H
1&
#5530000
0&
#5540000
b1001 H
1&
#5550000
0&
#5560000
b0 H
1/
1&
#5570000
0&
#5580000
1:
18
1G
1E
1@
1N
b1 H
1&
#5590000
0&
#5600000
0G
0E
0:
08
b10 H
1O
b100000 %
b100000 3
b100000 K
1A
b1100110 $
b1100110 2
b1100110 =
b110 ?
1&
#5610000
0&
#5620000
b11 H
1&
#5630000
0&
#5640000
b100 H
1&
#5650000
0&
#5660000
b101 H
1&
#5670000
0&
#5680000
b110 H
1&
#5690000
0&
#5700000
b111 H
1&
#5710000
0&
#5720000
b1000 H
1&
#5730000
0&
#5740000
b1001 H
1&
#5750000
0&
#5760000
b0 H
0/
1&
#5770000
0&
#5780000
19
17
1F
1D
0@
0N
b1 H
1&
#5790000
0&
#5800000
0F
0D
10
09
07
b10 H
0O
b10000000 L
b110 P
0A
b1000000 >
1&
#5810000
0&
#5820000
b11 H
1&
#5830000
0&
#5840000
b100 H
1&
#5850000
0&
#5860000
b101 H
1&
#5870000
0&
#5880000
b110 H
1&
#5890000
0&
#5900000
b111 H
1&
#5910000
0&
#5920000
b1000 H
1&
#5930000
0&
#5940000
b1001 H
1&
#5950000
0&
#5960000
b0 H
1/
1&
#5970000
0&
#5980000
1:
18
1G
1E
1@
1N
b1 H
1&
#5990000
0&
#6000000
0G
0E
0:
08
b10 H
1O
b1000000 %
b1000000 3
b1000000 K
1A
b11001101 $
b11001101 2
b11001101 =
b111 ?
1&
#6010000
0&
#6020000
b11 H
1&
#6030000
0&
#6040000
b100 H
1&
#6050000
0&
#6060000
b101 H
1&
#6070000
0&
#6080000
b110 H
1&
#6090000
0&
#6100000
b111 H
1&
#6110000
0&
#6120000
b1000 H
1&
#6130000
0&
#6140000
b1001 H
1&
#6150000
0&
#6160000
b0 H
0/
1&
#6170000
0&
#6180000
19
17
1F
1D
0@
0N
b1 H
1&
#6190000
0&
#6200000
11
0F
0D
00
09
07
b10 H
0O
b0 L
b111 P
0A
b10000000 >
1&
#6210000
0&
#6220000
b11 H
1&
#6230000
0&
#6240000
b100 H
1&
#6250000
0&
#6260000
b101 H
1&
#6270000
0&
#6280000
b110 H
1&
#6290000
0&
#6300000
b111 H
1&
#6310000
0&
#6320000
b1000 H
1&
#6330000
0&
#6340000
b1001 H
1&
#6350000
0&
#6360000
b0 H
1/
1&
#6370000
0&
#6380000
1:
18
1G
1E
1@
1N
b1 H
1&
#6390000
0&
#6400000
0G
0E
0:
08
b10 H
1O
b10000001 %
b10000001 3
b10000001 K
1A
b10011010 $
b10011010 2
b10011010 =
1#
b1000 ?
1&
#6410000
0&
#6420000
1!
1)
b11 H
1&
#6430000
0&
#6440000
0!
b100 H
1*
1&
#6450000
0&
#6460000
b101 H
1&
#6470000
0&
#6480000
b110 H
1&
#6490000
0&
#6500000
b111 H
1&
#6510000
0&
#6520000
b1000 H
1&
#6530000
0&
#6540000
b1001 H
1&
#6550000
0&
#6560000
b0 H
0/
1&
#6570000
0&
#6580000
19
17
1F
1D
0@
0N
b1 H
1&
#6590000
0&
#6600000
01
0F
0D
b100 M
09
07
b10 H
0O
b1000 P
0A
b0 >
1&
#6610000
0&
#6620000
b0 M
1"
14
0I
b100 J
b11 H
1&
#6630000
0&
#6640000
b0 H
b0 J
0"
b0 P
1;
0#
b0 ?
1&
#6650000
0&
#6660000
0)
1<
1&
