general_uart/tb/uart_loop_tb.vcd
$date
	Fri Jun 14 11:43:55 2019
$end
$version
	Icarus Verilog
$end
$timescale
	1ps
$end
$scope module uart_loop_tb $end
$var wire 1 ! tx_done $end
$var wire 8 " rx_frame [7:0] $end
$var wire 1 # rx_done $end
$var wire 1 $ frame_error $end
$var reg 1 % clk $end
$var reg 8 & data_frame [7:0] $end
$var reg 1 ' frame_en $end
$var reg 1 ( rst_n $end
$scope module uart_loop_inst $end
$var wire 1 % clk $end
$var wire 8 ) data_frame [7:0] $end
$var wire 1 ' frame_en $end
$var wire 1 ( rst_n $end
$var wire 1 * uart_tx $end
$var wire 1 ! tx_done $end
$var wire 8 + rx_frame [7:0] $end
$var wire 1 # rx_done $end
$var wire 1 $ frame_error $end
$scope module uart_frame_rx_inst $end
$var wire 1 , baud_rate_clk $end
$var wire 1 % clk $end
$var wire 1 - frame_en $end
$var wire 1 ( rst_n $end
$var wire 2 . verify_mode [1:0] $end
$var wire 1 * uart_rx $end
$var wire 1 / sample_clk $end
$var reg 1 0 cnt_en $end
$var reg 5 1 cstate [4:0] $end
$var reg 1 $ frame_error $end
$var reg 5 2 nstate [4:0] $end
$var reg 1 # rx_done $end
$var reg 8 3 rx_frame [7:0] $end
$var reg 4 4 sample_bit_cnt [3:0] $end
$var reg 4 5 sample_clk_cnt [3:0] $end
$var reg 2 6 sample_result [1:0] $end
$var reg 1 7 uart_rx0 $end
$var reg 1 8 uart_rx1 $end
$var reg 1 9 uart_rx2 $end
$var reg 1 : uart_rx3 $end
$scope function log2 $end
$var integer 32 ; v [31:0] $end
$upscope $end
$scope begin genblk3 $end
$upscope $end
$scope module rx_clk_gen_inst $end
$var wire 1 % clk $end
$var wire 1 ( rst_n $end
$var wire 1 # rx_done $end
$var wire 1 - rx_start $end
$var reg 3 < clk_count [2:0] $end
$var reg 1 = cstate $end
$var reg 1 > nstate $end
$var reg 1 / sample_clk $end
$scope function log2 $end
$var integer 32 ? v [31:0] $end
$upscope $end
$upscope $end
$upscope $end
$scope module uart_frame_tx_inst $end
$var wire 1 % clk $end
$var wire 8 @ data_frame [7:0] $end
$var wire 1 ' frame_en $end
$var wire 1 ( rst_n $end
$var wire 2 A verify_mode [1:0] $end
$var wire 1 B bps_clk $end
$var reg 3 C cnt [2:0] $end
$var reg 6 D cstate [5:0] $end
$var reg 8 E data_reg [7:0] $end
$var reg 6 F nstate [5:0] $end
$var reg 1 G parity_even $end
$var reg 1 ! tx_done $end
$var reg 1 * uart_tx $end
$scope function log2 $end
$var integer 32 H v [31:0] $end
$upscope $end
$scope begin genblk3 $end
$upscope $end
$scope module tx_clk_gen_inst $end
$var wire 1 % clk $end
$var wire 1 ( rst_n $end
$var wire 1 ! tx_done $end
$var wire 1 ' tx_start $end
$var reg 1 B bps_clk $end
$var reg 1 I c_state $end
$var reg 6 J count [5:0] $end
$var reg 1 K n_state $end
$scope function log2 $end
$var integer 32 L v [31:0] $end
$upscope $end
$upscope $end
$upscope $end
$upscope $end
$upscope $end
$enddefinitions $end
#0
$dumpvars
bx L
0K
b0 J
0I
bx H
0G
b0 F
b0 E
b0 D
b0 C
0B
b10 A
b101011 @
bx ?
0>
0=
b0 <
bx ;
0:
09
08
07
b0 6
b0 5
b0 4
b0 3
b0 2
b0 1
00
0/
b10 .
0-
0,
b0 +
1*
b101011 )
0(
0'
b101011 &
1%
0$
0#
b0 "
0!
$end
#10000
0%
#20000
1%
#22000
1(
#30000
1K
b1 F
0%
1'
#40000
1I
b1 D
17
1%
#50000
0%
0'
#60000
18
b1 J
1%
#70000
0%
#80000
b10 F
b10 J
1B
19
1%
#90000
0%
#100000
1:
0*
b101011 E
b10 D
0B
b11 J
1%
#110000
0%
#120000
b100 J
07
1%
#130000
0%
#140000
1>
b1 2
1-
08
b101 J
1%
#150000
0%
#160000
0-
b110 J
1=
09
10
b1 1
1%
#170000
0%
#180000
0:
b1 <
b111 J
1%
#190000
0%
#200000
b1000 J
b10 <
1/
1%
#210000
0%
#220000
b1 5
0/
b11 <
b1001 J
1%
#230000
0%
#240000
b1010 J
b100 <
1%
#250000
0%
#260000
b101 <
b1011 J
1%
#270000
0%
#280000
b1100 J
b0 <
1%
#290000
0%
#300000
b1 <
b1101 J
1%
#310000
0%
#320000
b1110 J
b10 <
1/
1%
#330000
0%
#340000
b10 5
0/
b11 <
b1111 J
1%
#350000
0%
#360000
b10000 J
b100 <
1%
#370000
0%
#380000
b101 <
b10001 J
1%
#390000
0%
#400000
b10010 J
b0 <
1%
#410000
0%
#420000
b1 <
b10011 J
1%
#430000
0%
#440000
b10100 J
b10 <
1/
1%
#450000
0%
#460000
b11 5
0/
b11 <
b10101 J
1%
#470000
0%
#480000
b10110 J
b100 <
1%
#490000
0%
#500000
b101 <
b10111 J
1%
#510000
0%
#520000
b11000 J
b0 <
1%
#530000
0%
#540000
b1 <
b11001 J
1%
#550000
0%
#560000
b11010 J
b10 <
1/
1%
#570000
0%
#580000
b100 5
0/
b11 <
b11011 J
1%
#590000
0%
#600000
b11100 J
b100 <
1%
#610000
0%
#620000
b101 <
b11101 J
1%
#630000
0%
#640000
b11110 J
b0 <
1%
#650000
0%
#660000
b1 <
b11111 J
1%
#670000
0%
#680000
b100000 J
b10 <
1/
1%
#690000
0%
#700000
b101 5
0/
b11 <
b100001 J
1%
#710000
0%
#720000
b100010 J
b100 <
1%
#730000
0%
#740000
b101 <
b100011 J
1%
#750000
0%
#760000
b100100 J
b0 <
1%
#770000
0%
#780000
b1 <
b100101 J
1%
#790000
0%
#800000
b100110 J
b10 <
1/
1%
#810000
0%
#820000
b110 5
0/
b11 <
b100111 J
1%
#830000
0%
#840000
b101000 J
b100 <
1%
#850000
0%
#860000
b101 <
b101001 J
1%
#870000
0%
#880000
b101010 J
b0 <
1%
#890000
0%
#900000
b1 <
b101011 J
1%
#910000
0%
#920000
b101100 J
b10 <
1/
1%
#930000
0%
#940000
b111 5
0/
b11 <
b101101 J
1%
#950000
0%
#960000
b101110 J
b100 <
1%
#970000
0%
#980000
b101 <
b101111 J
1%
#990000
0%
#1000000
b110000 J
b0 <
1%
#1010000
0%
#1020000
b1 <
b110001 J
1%
#1030000
0%
#1040000
b110010 J
b10 <
1/
1%
#1050000
0%
#1060000
b1000 5
0/
b11 <
b110011 J
1%
#1070000
0%
#1080000
b110100 J
b100 <
1%
#1090000
0%
#1100000
b101 <
b110101 J
1%
#1110000
0%
#1120000
b0 J
b0 <
1%
#1130000
0%
#1140000
b1 <
b1 J
1%
#1150000
0%
#1160000
b10 2
b100 F
1,
b10 J
1B
b10 <
1/
1%
#1170000
0%
#1180000
0,
b10 1
b1 4
b0 5
0/
b11 <
1*
b10101 E
b100 D
0B
b11 J
1%
#1190000
0%
#1200000
b100 J
b100 <
17
1%
#1210000
0%
#1220000
18
b101 <
b101 J
1%
#1230000
0%
#1240000
b110 J
b0 <
19
1%
#1250000
0%
#1260000
1:
b1 <
b111 J
1%
#1270000
0%
#1280000
b1000 J
b10 <
1/
1%
#1290000
0%
#1300000
b1 5
0/
b11 <
b1001 J
1%
#1310000
0%
#1320000
b1010 J
b100 <
1%
#1330000
0%
#1340000
b101 <
b1011 J
1%
#1350000
0%
#1360000
b1100 J
b0 <
1%
#1370000
0%
#1380000
b1 <
b1101 J
1%
#1390000
0%
#1400000
b1110 J
b10 <
1/
1%
#1410000
0%
#1420000
b10 5
0/
b11 <
b1111 J
1%
#1430000
0%
#1440000
b10000 J
b100 <
1%
#1450000
0%
#1460000
b101 <
b10001 J
1%
#1470000
0%
#1480000
b10010 J
b0 <
1%
#1490000
0%
#1500000
b1 <
b10011 J
1%
#1510000
0%
#1520000
b10100 J
b10 <
1/
1%
#1530000
0%
#1540000
b11 5
0/
b11 <
b10101 J
1%
#1550000
0%
#1560000
b10110 J
b100 <
1%
#1570000
0%
#1580000
b101 <
b10111 J
1%
#1590000
0%
#1600000
b11000 J
b0 <
1%
#1610000
0%
#1620000
b1 <
b11001 J
1%
#1630000
0%
#1640000
b11010 J
b10 <
1/
1%
#1650000
0%
#1660000
b1 6
b100 5
0/
b11 <
b11011 J
1%
#1670000
0%
#1680000
b11100 J
b100 <
1%
#1690000
0%
#1700000
b101 <
b11101 J
1%
#1710000
0%
#1720000
b11110 J
b0 <
1%
#1730000
0%
#1740000
b1 <
b11111 J
1%
#1750000
0%
#1760000
b100000 J
b10 <
1/
1%
#1770000
0%
#1780000
b10 6
b101 5
0/
b11 <
b100001 J
1%
#1790000
0%
#1800000
b100010 J
b100 <
1%
#1810000
0%
#1820000
b101 <
b100011 J
1%
#1830000
0%
#1840000
b100100 J
b0 <
1%
#1850000
0%
#1860000
b1 <
b100101 J
1%
#1870000
0%
#1880000
b100110 J
b10 <
1/
1%
#1890000
0%
#1900000
b11 6
b110 5
0/
b11 <
b100111 J
1%
#1910000
0%
#1920000
b101000 J
b100 <
1%
#1930000
0%
#1940000
b101 <
b101001 J
1%
#1950000
0%
#1960000
b101010 J
b0 <
1%
#1970000
0%
#1980000
b1 <
b101011 J
1%
#1990000
0%
#2000000
b101100 J
b10 <
1/
1%
#2010000
0%
#2020000
b10000000 "
b10000000 +
b10000000 3
b111 5
0/
b11 <
b101101 J
1%
#2030000
0%
#2040000
b101110 J
b100 <
1%
#2050000
0%
#2060000
b101 <
b101111 J
1%
#2070000
0%
#2080000
b110000 J
b0 <
1%
#2090000
0%
#2100000
b1 <
b110001 J
1%
#2110000
0%
#2120000
b110010 J
b10 <
1/
1%
#2130000
0%
#2140000
b1000 5
0/
b11 <
b110011 J
1%
#2150000
0%
#2160000
b110100 J
b100 <
1%
#2170000
0%
#2180000
b101 <
b110101 J
1%
#2190000
0%
#2200000
b0 J
b0 <
1%
#2210000
0%
#2220000
b1 <
b1 J
1%
#2230000
0%
#2240000
1,
b10 J
1B
b10 <
1/
1%
#2250000
0%
#2260000
0,
b10 4
b0 5
0/
b11 <
b1010 E
b1 C
0B
b11 J
1%
#2270000
0%
#2280000
b100 J
b100 <
1%
#2290000
0%
#2300000
b101 <
b101 J
1%
#2310000
0%
#2320000
b110 J
b0 <
1%
#2330000
0%
#2340000
b1 <
b111 J
1%
#2350000
0%
#2360000
b1000 J
b10 <
1/
1%
#2370000
0%
#2380000
b0 6
b1 5
0/
b11 <
b1001 J
1%
#2390000
0%
#2400000
b1010 J
b100 <
1%
#2410000
0%
#2420000
b101 <
b1011 J
1%
#2430000
0%
#2440000
b1100 J
b0 <
1%
#2450000
0%
#2460000
b1 <
b1101 J
1%
#2470000
0%
#2480000
b1110 J
b10 <
1/
1%
#2490000
0%
#2500000
b10 5
0/
b11 <
b1111 J
1%
#2510000
0%
#2520000
b10000 J
b100 <
1%
#2530000
0%
#2540000
b101 <
b10001 J
1%
#2550000
0%
#2560000
b10010 J
b0 <
1%
#2570000
0%
#2580000
b1 <
b10011 J
1%
#2590000
0%
#2600000
b10100 J
b10 <
1/
1%
#2610000
0%
#2620000
b11 5
0/
b11 <
b10101 J
1%
#2630000
0%
#2640000
b10110 J
b100 <
1%
#2650000
0%
#2660000
b101 <
b10111 J
1%
#2670000
0%
#2680000
b11000 J
b0 <
1%
#2690000
0%
#2700000
b1 <
b11001 J
1%
#2710000
0%
#2720000
b11010 J
b10 <
1/
1%
#2730000
0%
#2740000
b1 6
b100 5
0/
b11 <
b11011 J
1%
#2750000
0%
#2760000
b11100 J
b100 <
1%
#2770000
0%
#2780000
b101 <
b11101 J
1%
#2790000
0%
#2800000
b11110 J
b0 <
1%
#2810000
0%
#2820000
b1 <
b11111 J
1%
#2830000
0%
#2840000
b100000 J
b10 <
1/
1%
#2850000
0%
#2860000
b10 6
b101 5
0/
b11 <
b100001 J
1%
#2870000
0%
#2880000
b100010 J
b100 <
1%
#2890000
0%
#2900000
b101 <
b100011 J
1%
#2910000
0%
#2920000
b100100 J
b0 <
1%
#2930000
0%
#2940000
b1 <
b100101 J
1%
#2950000
0%
#2960000
b100110 J
b10 <
1/
1%
#2970000
0%
#2980000
b11 6
b110 5
0/
b11 <
b100111 J
1%
#2990000
0%
#3000000
b101000 J
b100 <
1%
#3010000
0%
#3020000
b101 <
b101001 J
1%
#3030000
0%
#3040000
b101010 J
b0 <
1%
#3050000
0%
#3060000
b1 <
b101011 J
1%
#3070000
0%
#3080000
b101100 J
b10 <
1/
1%
#3090000
0%
#3100000
b11000000 "
b11000000 +
b11000000 3
b111 5
0/
b11 <
b101101 J
1%
#3110000
0%
#3120000
b101110 J
b100 <
1%
#3130000
0%
#3140000
b101 <
b101111 J
1%
#3150000
0%
#3160000
b110000 J
b0 <
1%
#3170000
0%
#3180000
b1 <
b110001 J
1%
#3190000
0%
#3200000
b110010 J
b10 <
1/
1%
#3210000
0%
#3220000
b1000 5
0/
b11 <
b110011 J
1%
#3230000
0%
#3240000
b110100 J
b100 <
1%
#3250000
0%
#3260000
b101 <
b110101 J
1%
#3270000
0%
#3280000
b0 J
b0 <
1%
#3290000
0%
#3300000
b1 <
b1 J
1%
#3310000
0%
#3320000
1,
b10 J
1B
b10 <
1/
1%
#3330000
0%
#3340000
0,
b11 4
b0 5
0/
b11 <
0*
b101 E
b10 C
0B
b11 J
1%
#3350000
0%
#3360000
b100 J
b100 <
07
1%
#3370000
0%
#3380000
1-
08
b101 <
b101 J
1%
#3390000
0%
#3400000
0-
b110 J
b0 <
09
1%
#3410000
0%
#3420000
0:
b1 <
b111 J
1%
#3430000
0%
#3440000
b1000 J
b10 <
1/
1%
#3450000
0%
#3460000
b0 6
b1 5
0/
b11 <
b1001 J
1%
#3470000
0%
#3480000
b1010 J
b100 <
1%
#3490000
0%
#3500000
b101 <
b1011 J
1%
#3510000
0%
#3520000
b1100 J
b0 <
1%
#3530000
0%
#3540000
b1 <
b1101 J
1%
#3550000
0%
#3560000
b1110 J
b10 <
1/
1%
#3570000
0%
#3580000
b10 5
0/
b11 <
b1111 J
1%
#3590000
0%
#3600000
b10000 J
b100 <
1%
#3610000
0%
#3620000
b101 <
b10001 J
1%
#3630000
0%
#3640000
b10010 J
b0 <
1%
#3650000
0%
#3660000
b1 <
b10011 J
1%
#3670000
0%
#3680000
b10100 J
b10 <
1/
1%
#3690000
0%
#3700000
b11 5
0/
b11 <
b10101 J
1%
#3710000
0%
#3720000
b10110 J
b100 <
1%
#3730000
0%
#3740000
b101 <
b10111 J
1%
#3750000
0%
#3760000
b11000 J
b0 <
1%
#3770000
0%
#3780000
b1 <
b11001 J
1%
#3790000
0%
#3800000
b11010 J
b10 <
1/
1%
#3810000
0%
#3820000
b100 5
0/
b11 <
b11011 J
1%
#3830000
0%
#3840000
b11100 J
b100 <
1%
#3850000
0%
#3860000
b101 <
b11101 J
1%
#3870000
0%
#3880000
b11110 J
b0 <
1%
#3890000
0%
#3900000
b1 <
b11111 J
1%
#3910000
0%
#3920000
b100000 J
b10 <
1/
1%
#3930000
0%
#3940000
b101 5
0/
b11 <
b100001 J
1%
#3950000
0%
#3960000
b100010 J
b100 <
1%
#3970000
0%
#3980000
b101 <
b100011 J
1%
#3990000
0%
#4000000
b100100 J
b0 <
1%
#4010000
0%
#4020000
b1 <
b100101 J
1%
#4030000
0%
#4040000
b100110 J
b10 <
1/
1%
#4050000
0%
#4060000
b110 5
0/
b11 <
b100111 J
1%
#4070000
0%
#4080000
b101000 J
b100 <
1%
#4090000
0%
#4100000
b101 <
b101001 J
1%
#4110000
0%
#4120000
b101010 J
b0 <
1%
#4130000
0%
#4140000
b1 <
b101011 J
1%
#4150000
0%
#4160000
b101100 J
b10 <
1/
1%
#4170000
0%
#4180000
b1100000 "
b1100000 +
b1100000 3
b111 5
0/
b11 <
b101101 J
1%
#4190000
0%
#4200000
b101110 J
b100 <
1%
#4210000
0%
#4220000
b101 <
b101111 J
1%
#4230000
0%
#4240000
b110000 J
b0 <
1%
#4250000
0%
#4260000
b1 <
b110001 J
1%
#4270000
0%
#4280000
b110010 J
b10 <
1/
1%
#4290000
0%
#4300000
b1000 5
0/
b11 <
b110011 J
1%
#4310000
0%
#4320000
b110100 J
b100 <
1%
#4330000
0%
#4340000
b101 <
b110101 J
1%
#4350000
0%
#4360000
b0 J
b0 <
1%
#4370000
0%
#4380000
b1 <
b1 J
1%
#4390000
0%
#4400000
1,
b10 J
1B
b10 <
1/
1%
#4410000
0%
#4420000
0,
b100 4
b0 5
0/
b11 <
1*
b10 E
b11 C
0B
b11 J
1%
#4430000
0%
#4440000
b100 J
b100 <
17
1%
#4450000
0%
#4460000
18
b101 <
b101 J
1%
#4470000
0%
#4480000
b110 J
b0 <
19
1%
#4490000
0%
#4500000
1:
b1 <
b111 J
1%
#4510000
0%
#4520000
b1000 J
b10 <
1/
1%
#4530000
0%
#4540000
b1 5
0/
b11 <
b1001 J
1%
#4550000
0%
#4560000
b1010 J
b100 <
1%
#4570000
0%
#4580000
b101 <
b1011 J
1%
#4590000
0%
#4600000
b1100 J
b0 <
1%
#4610000
0%
#4620000
b1 <
b1101 J
1%
#4630000
0%
#4640000
b1110 J
b10 <
1/
1%
#4650000
0%
#4660000
b10 5
0/
b11 <
b1111 J
1%
#4670000
0%
#4680000
b10000 J
b100 <
1%
#4690000
0%
#4700000
b101 <
b10001 J
1%
#4710000
0%
#4720000
b10010 J
b0 <
1%
#4730000
0%
#4740000
b1 <
b10011 J
1%
#4750000
0%
#4760000
b10100 J
b10 <
1/
1%
#4770000
0%
#4780000
b11 5
0/
b11 <
b10101 J
1%
#4790000
0%
#4800000
b10110 J
b100 <
1%
#4810000
0%
#4820000
b101 <
b10111 J
1%
#4830000
0%
#4840000
b11000 J
b0 <
1%
#4850000
0%
#4860000
b1 <
b11001 J
1%
#4870000
0%
#4880000
b11010 J
b10 <
1/
1%
#4890000
0%
#4900000
b1 6
b100 5
0/
b11 <
b11011 J
1%
#4910000
0%
#4920000
b11100 J
b100 <
1%
#4930000
0%
#4940000
b101 <
b11101 J
1%
#4950000
0%
#4960000
b11110 J
b0 <
1%
#4970000
0%
#4980000
b1 <
b11111 J
1%
#4990000
0%
#5000000
b100000 J
b10 <
1/
1%
#5010000
0%
#5020000
b10 6
b101 5
0/
b11 <
b100001 J
1%
#5030000
0%
#5040000
b100010 J
b100 <
1%
#5050000
0%
#5060000
b101 <
b100011 J
1%
#5070000
0%
#5080000
b100100 J
b0 <
1%
#5090000
0%
#5100000
b1 <
b100101 J
1%
#5110000
0%
#5120000
b100110 J
b10 <
1/
1%
#5130000
0%
#5140000
b11 6
b110 5
0/
b11 <
b100111 J
1%
#5150000
0%
#5160000
b101000 J
b100 <
1%
#5170000
0%
#5180000
b101 <
b101001 J
1%
#5190000
0%
#5200000
b101010 J
b0 <
1%
#5210000
0%
#5220000
b1 <
b101011 J
1%
#5230000
0%
#5240000
b101100 J
b10 <
1/
1%
#5250000
0%
#5260000
b10110000 "
b10110000 +
b10110000 3
b111 5
0/
b11 <
b101101 J
1%
#5270000
0%
#5280000
b101110 J
b100 <
1%
#5290000
0%
#5300000
b101 <
b101111 J
1%
#5310000
0%
#5320000
b110000 J
b0 <
1%
#5330000
0%
#5340000
b1 <
b110001 J
1%
#5350000
0%
#5360000
b110010 J
b10 <
1/
1%
#5370000
0%
#5380000
b1000 5
0/
b11 <
b110011 J
1%
#5390000
0%
#5400000
b110100 J
b100 <
1%
#5410000
0%
#5420000
b101 <
b110101 J
1%
#5430000
0%
#5440000
b0 J
b0 <
1%
#5450000
0%
#5460000
b1 <
b1 J
1%
#5470000
0%
#5480000
1,
b10 J
1B
b10 <
1/
1%
#5490000
0%
#5500000
0,
b101 4
b0 5
0/
b11 <
0*
b1 E
b100 C
0B
b11 J
1%
#5510000
0%
#5520000
b100 J
b100 <
07
1%
#5530000
0%
#5540000
1-
08
b101 <
b101 J
1%
#5550000
0%
#5560000
0-
b110 J
b0 <
09
1%
#5570000
0%
#5580000
0:
b1 <
b111 J
1%
#5590000
0%
#5600000
b1000 J
b10 <
1/
1%
#5610000
0%
#5620000
b0 6
b1 5
0/
b11 <
b1001 J
1%
#5630000
0%
#5640000
b1010 J
b100 <
1%
#5650000
0%
#5660000
b101 <
b1011 J
1%
#5670000
0%
#5680000
b1100 J
b0 <
1%
#5690000
0%
#5700000
b1 <
b1101 J
1%
#5710000
0%
#5720000
b1110 J
b10 <
1/
1%
#5730000
0%
#5740000
b10 5
0/
b11 <
b1111 J
1%
#5750000
0%
#5760000
b10000 J
b100 <
1%
#5770000
0%
#5780000
b101 <
b10001 J
1%
#5790000
0%
#5800000
b10010 J
b0 <
1%
#5810000
0%
#5820000
b1 <
b10011 J
1%
#5830000
0%
#5840000
b10100 J
b10 <
1/
1%
#5850000
0%
#5860000
b11 5
0/
b11 <
b10101 J
1%
#5870000
0%
#5880000
b10110 J
b100 <
1%
#5890000
0%
#5900000
b101 <
b10111 J
1%
#5910000
0%
#5920000
b11000 J
b0 <
1%
#5930000
0%
#5940000
b1 <
b11001 J
1%
#5950000
0%
#5960000
b11010 J
b10 <
1/
1%
#5970000
0%
#5980000
b100 5
0/
b11 <
b11011 J
1%
#5990000
0%
#6000000
b11100 J
b100 <
1%
#6010000
0%
#6020000
b101 <
b11101 J
1%
#6030000
0%
#6040000
b11110 J
b0 <
1%
#6050000
0%
#6060000
b1 <
b11111 J
1%
#6070000
0%
#6080000
b100000 J
b10 <
1/
1%
#6090000
0%
#6100000
b101 5
0/
b11 <
b100001 J
1%
#6110000
0%
#6120000
b100010 J
b100 <
1%
#6130000
0%
#6140000
b101 <
b100011 J
1%
#6150000
0%
#6160000
b100100 J
b0 <
1%
#6170000
0%
#6180000
b1 <
b100101 J
1%
#6190000
0%
#6200000
b100110 J
b10 <
1/
1%
#6210000
0%
#6220000
b110 5
0/
b11 <
b100111 J
1%
#6230000
0%
#6240000
b101000 J
b100 <
1%
#6250000
0%
#6260000
b101 <
b101001 J
1%
#6270000
0%
#6280000
b101010 J
b0 <
1%
#6290000
0%
#6300000
b1 <
b101011 J
1%
#6310000
0%
#6320000
b101100 J
b10 <
1/
1%
#6330000
0%
#6340000
b1011000 "
b1011000 +
b1011000 3
b111 5
0/
b11 <
b101101 J
1%
#6350000
0%
#6360000
b101110 J
b100 <
1%
#6370000
0%
#6380000
b101 <
b101111 J
1%
#6390000
0%
#6400000
b110000 J
b0 <
1%
#6410000
0%
#6420000
b1 <
b110001 J
1%
#6430000
0%
#6440000
b110010 J
b10 <
1/
1%
#6450000
0%
#6460000
b1000 5
0/
b11 <
b110011 J
1%
#6470000
0%
#6480000
b110100 J
b100 <
1%
#6490000
0%
#6500000
b101 <
b110101 J
1%
#6510000
0%
#6520000
b0 J
b0 <
1%
#6530000
0%
#6540000
b1 <
b1 J
1%
#6550000
0%
#6560000
1,
b10 J
1B
b10 <
1/
1%
#6570000
0%
#6580000
0,
b110 4
b0 5
0/
b11 <
1*
b0 E
b101 C
0B
b11 J
1%
#6590000
0%
#6600000
b100 J
b100 <
17
1%
#6610000
0%
#6620000
18
b101 <
b101 J
1%
#6630000
0%
#6640000
b110 J
b0 <
19
1%
#6650000
0%
#6660000
1:
b1 <
b111 J
1%
#6670000
0%
#6680000
b1000 J
b10 <
1/
1%
#6690000
0%
#6700000
b1 5
0/
b11 <
b1001 J
1%
#6710000
0%
#6720000
b1010 J
b100 <
1%
#6730000
0%
#6740000
b101 <
b1011 J
1%
#6750000
0%
#6760000
b1100 J
b0 <
1%
#6770000
0%
#6780000
b1 <
b1101 J
1%
#6790000
0%
#6800000
b1110 J
b10 <
1/
1%
#6810000
0%
#6820000
b10 5
0/
b11 <
b1111 J
1%
#6830000
0%
#6840000
b10000 J
b100 <
1%
#6850000
0%
#6860000
b101 <
b10001 J
1%
#6870000
0%
#6880000
b10010 J
b0 <
1%
#6890000
0%
#6900000
b1 <
b10011 J
1%
#6910000
0%
#6920000
b10100 J
b10 <
1/
1%
#6930000
0%
#6940000
b11 5
0/
b11 <
b10101 J
1%
#6950000
0%
#6960000
b10110 J
b100 <
1%
#6970000
0%
#6980000
b101 <
b10111 J
1%
#6990000
0%
#7000000
b11000 J
b0 <
1%
#7010000
0%
#7020000
b1 <
b11001 J
1%
#7030000
0%
#7040000
b11010 J
b10 <
1/
1%
#7050000
0%
#7060000
b1 6
b100 5
0/
b11 <
b11011 J
1%
#7070000
0%
#7080000
b11100 J
b100 <
1%
#7090000
0%
#7100000
b101 <
b11101 J
1%
#7110000
0%
#7120000
b11110 J
b0 <
1%
#7130000
0%
#7140000
b1 <
b11111 J
1%
#7150000
0%
#7160000
b100000 J
b10 <
1/
1%
#7170000
0%
#7180000
b10 6
b101 5
0/
b11 <
b100001 J
1%
#7190000
0%
#7200000
b100010 J
b100 <
1%
#7210000
0%
#7220000
b101 <
b100011 J
1%
#7230000
0%
#7240000
b100100 J
b0 <
1%
#7250000
0%
#7260000
b1 <
b100101 J
1%
#7270000
0%
#7280000
b100110 J
b10 <
1/
1%
#7290000
0%
#7300000
b11 6
b110 5
0/
b11 <
b100111 J
1%
#7310000
0%
#7320000
b101000 J
b100 <
1%
#7330000
0%
#7340000
b101 <
b101001 J
1%
#7350000
0%
#7360000
b101010 J
b0 <
1%
#7370000
0%
#7380000
b1 <
b101011 J
1%
#7390000
0%
#7400000
b101100 J
b10 <
1/
1%
#7410000
0%
#7420000
b10101100 "
b10101100 +
b10101100 3
b111 5
0/
b11 <
b101101 J
1%
#7430000
0%
#7440000
b101110 J
b100 <
1%
#7450000
0%
#7460000
b101 <
b101111 J
1%
#7470000
0%
#7480000
b110000 J
b0 <
1%
#7490000
0%
#7500000
b1 <
b110001 J
1%
#7510000
0%
#7520000
b110010 J
b10 <
1/
1%
#7530000
0%
#7540000
b1000 5
0/
b11 <
b110011 J
1%
#7550000
0%
#7560000
b110100 J
b100 <
1%
#7570000
0%
#7580000
b101 <
b110101 J
1%
#7590000
0%
#7600000
b0 J
b0 <
1%
#7610000
0%
#7620000
b1 <
b1 J
1%
#7630000
0%
#7640000
1,
b10 J
1B
b10 <
1/
1%
#7650000
0%
#7660000
0,
b111 4
b0 5
0/
b11 <
0*
b110 C
0B
b11 J
1%
#7670000
0%
#7680000
b100 J
b100 <
07
1%
#7690000
0%
#7700000
1-
08
b101 <
b101 J
1%
#7710000
0%
#7720000
0-
b110 J
b0 <
09
1%
#7730000
0%
#7740000
0:
b1 <
b111 J
1%
#7750000
0%
#7760000
b1000 J
b10 <
1/
1%
#7770000
0%
#7780000
b0 6
b1 5
0/
b11 <
b1001 J
1%
#7790000
0%
#7800000
b1010 J
b100 <
1%
#7810000
0%
#7820000
b101 <
b1011 J
1%
#7830000
0%
#7840000
b1100 J
b0 <
1%
#7850000
0%
#7860000
b1 <
b1101 J
1%
#7870000
0%
#7880000
b1110 J
b10 <
1/
1%
#7890000
0%
#7900000
b10 5
0/
b11 <
b1111 J
1%
#7910000
0%
#7920000
b10000 J
b100 <
1%
#7930000
0%
#7940000
b101 <
b10001 J
1%
#7950000
0%
#7960000
b10010 J
b0 <
1%
#7970000
0%
#7980000
b1 <
b10011 J
1%
#7990000
0%
#8000000
b10100 J
b10 <
1/
1%
#8010000
0%
#8020000
b11 5
0/
b11 <
b10101 J
1%
#8030000
0%
#8040000
b10110 J
b100 <
1%
#8050000
0%
#8060000
b101 <
b10111 J
1%
#8070000
0%
#8080000
b11000 J
b0 <
1%
#8090000
0%
#8100000
b1 <
b11001 J
1%
#8110000
0%
#8120000
b11010 J
b10 <
1/
1%
#8130000
0%
#8140000
b100 5
0/
b11 <
b11011 J
1%
#8150000
0%
#8160000
b11100 J
b100 <
1%
#8170000
0%
#8180000
b101 <
b11101 J
1%
#8190000
0%
#8200000
b11110 J
b0 <
1%
#8210000
0%
#8220000
b1 <
b11111 J
1%
#8230000
0%
#8240000
b100000 J
b10 <
1/
1%
#8250000
0%
#8260000
b101 5
0/
b11 <
b100001 J
1%
#8270000
0%
#8280000
b100010 J
b100 <
1%
#8290000
0%
#8300000
b101 <
b100011 J
1%
#8310000
0%
#8320000
b100100 J
b0 <
1%
#8330000
0%
#8340000
b1 <
b100101 J
1%
#8350000
0%
#8360000
b100110 J
b10 <
1/
1%
#8370000
0%
#8380000
b110 5
0/
b11 <
b100111 J
1%
#8390000
0%
#8400000
b101000 J
b100 <
1%
#8410000
0%
#8420000
b101 <
b101001 J
1%
#8430000
0%
#8440000
b101010 J
b0 <
1%
#8450000
0%
#8460000
b1 <
b101011 J
1%
#8470000
0%
#8480000
b101100 J
b10 <
1/
1%
#8490000
0%
#8500000
b1010110 "
b1010110 +
b1010110 3
b111 5
0/
b11 <
b101101 J
1%
#8510000
0%
#8520000
b101110 J
b100 <
1%
#8530000
0%
#8540000
b101 <
b101111 J
1%
#8550000
0%
#8560000
b110000 J
b0 <
1%
#8570000
0%
#8580000
b1 <
b110001 J
1%
#8590000
0%
#8600000
b110010 J
b10 <
1/
1%
#8610000
0%
#8620000
b1000 5
0/
b11 <
b110011 J
1%
#8630000
0%
#8640000
b110100 J
b100 <
1%
#8650000
0%
#8660000
b101 <
b110101 J
1%
#8670000
0%
#8680000
b0 J
b0 <
1%
#8690000
0%
#8700000
b1 <
b1 J
1%
#8710000
0%
#8720000
1,
b10 J
1B
b10 <
1/
1%
#8730000
0%
#8740000
0,
b1000 4
b0 5
0/
b11 <
b111 C
0B
b11 J
1%
#8750000
0%
#8760000
b100 J
b100 <
1%
#8770000
0%
#8780000
b101 <
b101 J
1%
#8790000
0%
#8800000
b110 J
b0 <
1%
#8810000
0%
#8820000
b1 <
b111 J
1%
#8830000
0%
#8840000
b1000 J
b10 <
1/
1%
#8850000
0%
#8860000
b1 5
0/
b11 <
b1001 J
1%
#8870000
0%
#8880000
b1010 J
b100 <
1%
#8890000
0%
#8900000
b101 <
b1011 J
1%
#8910000
0%
#8920000
b1100 J
b0 <
1%
#8930000
0%
